…
    # Find the number of population_walk in each state
    ## step 1- add population_walk containing the total number of people who walk to work   
    ## step 2 - count weighted by the new column, and sort in descending order.
    counties %>%
        mutate(population_walk = population * walk / 100) %>%    
        count(state, wt = population_walk, sort = TRUE)
    ```    
  * ğŸ” **result 2** :
    ```
     # A tibble: 50 x 2
       state            n
       <chr>          <dbl>
     1 New York       1237938.
     2 California     1017964.
     3 Pennsylvania   505397.
     4 Texas          430783.
     5 Illinois       400346.
     6 Massachusetts  316765.
     7 Florida        284723.
     8 New Jersey     273047.
     9 Ohio           266911.
    10 Washington     239764.
    # ... with 40 more rows
    ```
…
