…
    # Find median life expectancy and maximum GDP per capita in each continent/year combination
    gapminder %>%
        group_by(continent, year) %>%
        summarize(medianLifeExp = median(lifeExp), maxGdpPerCap = max(gdpPercap))
    ```
  * 🔎 **result** :
    ```
    # A tibble: 60 × 4
    # Groups:   continent [5]
       continent  year medianLifeExp maxGdpPerCap
       <fct>     <int>         <dbl>        <dbl>
     1 Africa     1952          38.8        4725.
     2 Africa     1957          40.6        5487.
     3 Africa     1962          42.6        6757.
     4 Africa     1967          44.7       18773.
     5 Africa     1972          47.0       21011.
     6 Africa     1977          49.3       21951.
     7 Africa     1982          50.8       17364.
     8 Africa     1987          51.6       11864.
     9 Africa     1992          52.4       13522.
    10 Africa     1997          52.8       14723.
    # … with 50 more rows
    ```
…
